<?xml version="1.0" encoding="utf-8"?>
<!-- Generator: Adobe Illustrator 24.0.1, SVG Export Plug-In . SVG Version: 6.00 Build 0)  -->
<svg version="1.1" id="Layer_1" xmlns="http://www.w3.org/2000/svg" xmlns:xlink="http://www.w3.org/1999/xlink" x="0px" y="0px"
	 viewBox="0 0 1922 474" style="enable-background:new 0 0 1922 474;" xml:space="preserve">
<style type="text/css">
	.st0{opacity:0.05;clip-path:url(#SVGID_2_);fill:#606060;}
	.st1{clip-path:url(#SVGID_2_);fill:url(#SVGID_3_);}
</style>
<g>
	<defs>
		<rect id="SVGID_1_" x="0.32" y="-0.27" width="1921.65" height="474.62"/>
	</defs>
	<clipPath id="SVGID_2_">
		<use xlink:href="#SVGID_1_"  style="overflow:visible;"/>
	</clipPath>
	<rect x="-30.24" y="-120.39" class="st0" width="2008.29" height="4600"/>
	<linearGradient id="SVGID_3_" gradientUnits="userSpaceOnUse" x1="1204.9537" y1="-325.6136" x2="1204.9537" y2="517.5728">
		<stop  offset="1.302083e-03" style="stop-color:#FE74B5"/>
		<stop  offset="0.0572" style="stop-color:#FE7AB0"/>
		<stop  offset="0.466" style="stop-color:#FDA08E"/>
		<stop  offset="0.7941" style="stop-color:#FCB77A"/>
		<stop  offset="0.9985" style="stop-color:#FCC072"/>
	</linearGradient>
	<path class="st1" d="M-114.26-325.61l-97.89,843.19c90.43-149.4,801.21,23.08,1486.38-127.44
		c569.95-125.21,1102.14,218.09,1303.79-118.7c84.7-141.47-398.75,93.64-123.92,68.33c426.6-39.29-109.47-207.82,18.36-341.41
		L-114.26-325.61z"/>
</g>
</svg>
